[
  {
    "name": "onions",
    "img": "onions.png",
    "stocks": [
      {
        "quantity": 100,
        "price": 5
      }
    ]
  },
  {
    "name": "grapes",
    "img": "grapes.png",
    "stocks": [
      {
        "quantity": 100,
        "price": 5
      }
    ]
  },
  {
    "name": "lettuce",
    "img": "lettuce.png",
    "stocks": [
      {
        "quantity": 100,
        "price": 5
      }
    ]
  },
  {
    "name": "lemons",
    "img": "lemons.png",
    "stocks": [
      {
        "quantity": 100,
        "price": 5
      }
    ]
  },
  {
    "name": "oranges",
    "img": "oranges.png",
    "stocks": [
      {
        "quantity": 100,
        "price": 5
      }
    ]
  },
  {
    "name": "avocados",
    "img": "avocados.png",
    "stocks": [
      {
        "quantity": 100,
        "price": 5
      }
    ]
  },
  {
    "name": "eggs",
    "img": "eggs.png",
    "stocks": [
      {
        "quantity": 100,
        "price": 5
      }
    ]
  },
  {
    "name": "carrots",
    "img": "carrots.png",
    "stocks": [
      {
        "quantity": 100,
        "price": 5
      }
    ]
  },
  {
    "name": "tomatoes",
    "img": "tomatoes.png",
    "stocks": [
      {
        "quantity": 100,
        "price": 5
      }
    ]
  },
  {
    "name": "cheese",
    "img": "cheese.png",
    "stocks": [
      {
        "quantity": 100,
        "price": 5
      }
    ]
  },
  {
    "name": "potatoes",
    "img": "potatoes.png",
    "stocks": [
      {
        "quantity": 100,
        "price": 5
      }
    ]
  },
  {
    "name": "oil",
    "img": "oil.png",
    "stocks": [
      {
        "quantity": 100,
        "price": 5
      }
    ]
  }
]